{
  "Actor": {
    "types": ["character", "npc", "creature"],
    "templates": {
      "common": {
        "name": "",
        "characteristics": {
          "str": {
            "value": 11,
            "mod": 0
          },
          "con": {
            "value": 11,
            "mod": 0
          },
          "siz": {
            "value": 11,
            "mod": 0
          },
          "dex": {
            "value": 11,
            "mod": 0
          },
          "int": {
            "value": 11,
            "mod": 0
          },
          "pow": {
            "value": 11,
            "mod": 0
          },
          "cha": {
            "value": 11,
            "mod": 0
          }
        },
        "attributes": {
          "actionPoints": {
            "mod": 0,
            "value": 2
          },
          "damageMod": {
            "mod": 0
          },
          "experienceMod": {
            "mod": 0
          },
          "healingRate": {
            "mod": 0
          },
          "hitPointMod": {
            "mod": 0
          },
          "initiativeBonus": {
            "mod": 0
          },
          "luckPoints": {
            "mod": 0,
            "value": 2
          },
          "magicPoints": {
            "mod": 0,
            "value": 11
          },
          "tenacity": {
            "mod": 0,
            "value": 0
          },
          "movement": {
            "walk": 6,
            "mod": 0
          },
          "climb": {
            "mod": 0
          },
          "jump": {
            "mod": 0
          },
          "swim": {
            "mod": 0,
            "base": 6
          },
          "fatigue": {
            "value": "fresh"
          },
          "encumbrance": {
            "value": 0,
            "mod": 0
          },
          "armorPenalty": {
            "value": 0,
            "mod": 0
          }
        },
        "currentLuckPoints": 2,
        "currentMagicPoints": 11,
        "currentActionPoints": 2,
        "experienceRolls": 0
      },
      "humanoid": {}
    },
    "character": {
      "templates": ["common", "humanoid"],
      "career": "",
      "homeland": "",
      "socialClass": "",
      "gender": "",
      "age": "",
      "handedness": "",
      "frame": "",
      "height": "",
      "weight": "",
      "raceCulture": "",
      "journal": "",
      "abilitiesDesc": "",
      "cult information": "",
      "conditionsAndWounds": ""
    }
  },
  "Item": {
    "types": [
      "standardSkill",
      "hitLocation",
      "professionalSkill",
      "combatStyle",
      "magicSkill",
      "passion",
      "melee-weapon",
      "ranged-weapon",
      "armor",
      "equipment",
      "currency",
      "ability",
      "spell"
    ],
    "templates": {
      "base": {
        "description": ""
      },
      "skill": {
        "description": "",
        "primaryChar": "str",
        "secondaryChar": "str",
        "baseVal": {
          "value": 0,
          "init": 0
        },
        "trainingVal": 0,
        "miscBonus": 0,
        "totalVal": 0,
        "trained": false,
        "fumbled": false
      },
      "item": {
        "description": "",
        "encumbrance": 0,
        "quantity": 1,
        "value": 0,
        "ap": 0,
        "currentAp": 0,
        "hp": 0,
        "currentHp": 0
      }
    },
    "hitLocation": {
      "rollRangeStart": 0,
      "rollRangeEnd": 0,
      "baseHp": 0,
      "maxHp": 0,
      "currentHp": 0,
      "maxHpMod": 0
    },
    "standardSkill": {
      "templates": ["skill"]
    },
    "professionalSkill": {
      "templates": ["skill"]
    },
    "combatStyle": {
      "templates": ["skill"],
      "secondaryChar": "dex",
      "traits": "",
      "weapons": ""
    },
    "magicSkill": {
      "templates": ["skill"],
      "magnitude": 0,
      "intensity": 0,
      "rank": "",
      "spells": ""
    },
    "passion": {
      "templates": ["skill"]
    },
    "melee-weapon": {
      "templates": ["item"],
      "damage": 0,
      "damageModifier": true,
      "size": "S",
      "reach": "T",
      "combat-effects": "",
      "traits": "",
      "hands": "one"
    },
    "ranged-weapon": {
      "templates": ["item"],
      "damage": 0,
      "damageModifier": true,
      "force": "S",
      "range": {
        "close": 0,
        "effective": 0,
        "long": 0
      },
      "load": 0,
      "combat-effects": "",
      "impale-size": "S",
      "ammo": 0
    },
    "armor": {
      "templates": ["item"],
      "hitLoc": [],
      "location": "Unequipped",
      "locationName": "",
      "type": "",
      "equipped": false
    },
    "equipment": {
      "templates": ["item"]
    },
    "currency": {
      "templates": ["item"]
    },
    "ability": {
      "templates": ["base"]
    },
    "spell": {
      "templates": ["base"],
      "spellLevel": 1
    }
  }
}
